{"level":"error","message":"Unknown database 'ecommerce'","name":"SequelizeConnectionError","original":{"code":"ER_BAD_DB_ERROR","errno":1049,"sqlMessage":"Unknown database 'ecommerce'","sqlState":"42000"},"parent":{"code":"ER_BAD_DB_ERROR","errno":1049,"sqlMessage":"Unknown database 'ecommerce'","sqlState":"42000"},"stack":"SequelizeConnectionError: Unknown database 'ecommerce'\n    at ConnectionManager.connect (/home/apcruz/projetos/ecommerce/node_modules/sequelize/lib/dialects/mysql/connection-manager.js:102:17)\n    at process.processTicksAndRejections (node:internal/process/task_queues:95:5)\n    at async ConnectionManager._connect (/home/apcruz/projetos/ecommerce/node_modules/sequelize/lib/dialects/abstract/connection-manager.js:222:24)\n    at async /home/apcruz/projetos/ecommerce/node_modules/sequelize/lib/dialects/abstract/connection-manager.js:174:32\n    at async ConnectionManager.getConnection (/home/apcruz/projetos/ecommerce/node_modules/sequelize/lib/dialects/abstract/connection-manager.js:197:7)\n    at async /home/apcruz/projetos/ecommerce/node_modules/sequelize/lib/sequelize.js:305:26\n    at async MySQLQueryInterface.select (/home/apcruz/projetos/ecommerce/node_modules/sequelize/lib/dialects/abstract/query-interface.js:407:12)\n    at async Pessoas.findAll (/home/apcruz/projetos/ecommerce/node_modules/sequelize/lib/model.js:1140:21)\n    at async Repository.pegarTodosOsRegistros (/home/apcruz/projetos/ecommerce/repositories/index.js:47:20)"}
{"level":"error","message":"The attributes option must be an array of column names or an object","name":"SequelizeQueryError","stack":"SequelizeQueryError: The attributes option must be an array of column names or an object\n    at Pessoas.findAll (/home/apcruz/projetos/ecommerce/node_modules/sequelize/lib/model.js:1096:15)\n    at Repository.pegarTodosOsRegistros (/home/apcruz/projetos/ecommerce/repositories/index.js:50:53)\n    at PessoasService.getPessoas (/home/apcruz/projetos/ecommerce/services/PessoasService.js:6:44)\n    at getPessoas (/home/apcruz/projetos/ecommerce/controllers/PessoasController.js:7:51)\n    at Layer.handle [as handle_request] (/home/apcruz/projetos/ecommerce/node_modules/express/lib/router/layer.js:95:5)\n    at next (/home/apcruz/projetos/ecommerce/node_modules/express/lib/router/route.js:144:13)\n    at Route.dispatch (/home/apcruz/projetos/ecommerce/node_modules/express/lib/router/route.js:114:3)\n    at Layer.handle [as handle_request] (/home/apcruz/projetos/ecommerce/node_modules/express/lib/router/layer.js:95:5)\n    at /home/apcruz/projetos/ecommerce/node_modules/express/lib/router/index.js:284:15\n    at Function.process_params (/home/apcruz/projetos/ecommerce/node_modules/express/lib/router/index.js:346:12)"}
{"level":"error","message":"The attributes option must be an array of column names or an object","name":"SequelizeQueryError","stack":"SequelizeQueryError: The attributes option must be an array of column names or an object\n    at Pessoas.findAll (/home/apcruz/projetos/ecommerce/node_modules/sequelize/lib/model.js:1096:15)\n    at Repository.pegarTodosOsRegistros (/home/apcruz/projetos/ecommerce/repositories/index.js:47:53)\n    at PessoasService.getPessoas (/home/apcruz/projetos/ecommerce/services/PessoasService.js:6:44)\n    at getPessoas (/home/apcruz/projetos/ecommerce/controllers/PessoasController.js:7:51)\n    at Layer.handle [as handle_request] (/home/apcruz/projetos/ecommerce/node_modules/express/lib/router/layer.js:95:5)\n    at next (/home/apcruz/projetos/ecommerce/node_modules/express/lib/router/route.js:144:13)\n    at Route.dispatch (/home/apcruz/projetos/ecommerce/node_modules/express/lib/router/route.js:114:3)\n    at Layer.handle [as handle_request] (/home/apcruz/projetos/ecommerce/node_modules/express/lib/router/layer.js:95:5)\n    at /home/apcruz/projetos/ecommerce/node_modules/express/lib/router/index.js:284:15\n    at Function.process_params (/home/apcruz/projetos/ecommerce/node_modules/express/lib/router/index.js:346:12)"}
{"level":"error","message":"PessoasService.login is not a function","stack":"TypeError: PessoasService.login is not a function\n    at login (/home/apcruz/projetos/ecommerce/controllers/PessoasController.js:7:51)\n    at Layer.handle [as handle_request] (/home/apcruz/projetos/ecommerce/node_modules/express/lib/router/layer.js:95:5)\n    at next (/home/apcruz/projetos/ecommerce/node_modules/express/lib/router/route.js:144:13)\n    at Route.dispatch (/home/apcruz/projetos/ecommerce/node_modules/express/lib/router/route.js:114:3)\n    at Layer.handle [as handle_request] (/home/apcruz/projetos/ecommerce/node_modules/express/lib/router/layer.js:95:5)\n    at /home/apcruz/projetos/ecommerce/node_modules/express/lib/router/index.js:284:15\n    at Function.process_params (/home/apcruz/projetos/ecommerce/node_modules/express/lib/router/index.js:346:12)\n    at next (/home/apcruz/projetos/ecommerce/node_modules/express/lib/router/index.js:280:10)\n    at Function.handle (/home/apcruz/projetos/ecommerce/node_modules/express/lib/router/index.js:175:3)\n    at router (/home/apcruz/projetos/ecommerce/node_modules/express/lib/router/index.js:47:12)"}
{"level":"error","message":"Cannot read properties of undefined (reading 'hasOwnProperty')","stack":"TypeError: Cannot read properties of undefined (reading 'hasOwnProperty')\n    at login (/home/apcruz/projetos/ecommerce/controllers/PessoasController.js:8:26)\n    at process.processTicksAndRejections (node:internal/process/task_queues:95:5)"}
{"level":"error","message":"Cannot read properties of undefined (reading 'hasOwnProperty')","stack":"TypeError: Cannot read properties of undefined (reading 'hasOwnProperty')\n    at login (/home/apcruz/projetos/ecommerce/controllers/PessoasController.js:8:26)\n    at process.processTicksAndRejections (node:internal/process/task_queues:95:5)"}
{"level":"error","message":"UsuariosService.cadastrarUsuario is not a function","stack":"TypeError: UsuariosService.cadastrarUsuario is not a function\n    at cadastrarUsuario (/home/apcruz/projetos/ecommerce/controllers/UsuariosController.js:7:52)\n    at Layer.handle [as handle_request] (/home/apcruz/projetos/ecommerce/node_modules/express/lib/router/layer.js:95:5)\n    at next (/home/apcruz/projetos/ecommerce/node_modules/express/lib/router/route.js:144:13)\n    at Route.dispatch (/home/apcruz/projetos/ecommerce/node_modules/express/lib/router/route.js:114:3)\n    at Layer.handle [as handle_request] (/home/apcruz/projetos/ecommerce/node_modules/express/lib/router/layer.js:95:5)\n    at /home/apcruz/projetos/ecommerce/node_modules/express/lib/router/index.js:284:15\n    at Function.process_params (/home/apcruz/projetos/ecommerce/node_modules/express/lib/router/index.js:346:12)\n    at next (/home/apcruz/projetos/ecommerce/node_modules/express/lib/router/index.js:280:10)\n    at Function.handle (/home/apcruz/projetos/ecommerce/node_modules/express/lib/router/index.js:175:3)\n    at router (/home/apcruz/projetos/ecommerce/node_modules/express/lib/router/index.js:47:12)"}
{"erros":[{"campo":"nome","mensagem":"O campo nome é obrigatório."},{"campo":"login","mensagem":"O campo login é obrigatório."},{"campo":"email","mensagem":"O campo email é obrigatório."},{"campo":"senha","mensagem":"O campo senha é obrigatório."},{"campo":"status","mensagem":"O campo status é obrigatório."},{"campo":"acesso","mensagem":"O campo acesso é obrigatório."}],"level":"error","message":"Parâmetros inválidos","name":"CamposFaltando","stack":"CamposFaltando: Parâmetros inválidos\n    at UsuarioService.cadastrarUsuario (/home/apcruz/projetos/ecommerce/services/UsuariosService.js:39:19)\n    at cadastrarUsuario (/home/apcruz/projetos/ecommerce/controllers/UsuariosController.js:7:52)\n    at Layer.handle [as handle_request] (/home/apcruz/projetos/ecommerce/node_modules/express/lib/router/layer.js:95:5)\n    at next (/home/apcruz/projetos/ecommerce/node_modules/express/lib/router/route.js:144:13)\n    at Route.dispatch (/home/apcruz/projetos/ecommerce/node_modules/express/lib/router/route.js:114:3)\n    at Layer.handle [as handle_request] (/home/apcruz/projetos/ecommerce/node_modules/express/lib/router/layer.js:95:5)\n    at /home/apcruz/projetos/ecommerce/node_modules/express/lib/router/index.js:284:15\n    at Function.process_params (/home/apcruz/projetos/ecommerce/node_modules/express/lib/router/index.js:346:12)\n    at next (/home/apcruz/projetos/ecommerce/node_modules/express/lib/router/index.js:280:10)\n    at Function.handle (/home/apcruz/projetos/ecommerce/node_modules/express/lib/router/index.js:175:3)","status":400}
{"level":"error","message":"Access denied for user 'root'@'172.18.0.1' (using password: NO)","name":"SequelizeAccessDeniedError","original":{"code":"ER_ACCESS_DENIED_ERROR","errno":1045,"sqlMessage":"Access denied for user 'root'@'172.18.0.1' (using password: NO)","sqlState":"28000"},"parent":{"code":"ER_ACCESS_DENIED_ERROR","errno":1045,"sqlMessage":"Access denied for user 'root'@'172.18.0.1' (using password: NO)","sqlState":"28000"},"stack":"SequelizeAccessDeniedError: Access denied for user 'root'@'172.18.0.1' (using password: NO)\n    at ConnectionManager.connect (/home/apcruz/projetos/ecommerce/node_modules/sequelize/src/dialects/mysql/connection-manager.js:118:17)\n    at processTicksAndRejections (node:internal/process/task_queues:95:5)\n    at ConnectionManager._connect (/home/apcruz/projetos/ecommerce/node_modules/sequelize/src/dialects/abstract/connection-manager.js:332:24)\n    at /home/apcruz/projetos/ecommerce/node_modules/sequelize/src/dialects/abstract/connection-manager.js:250:32\n    at ConnectionManager.getConnection (/home/apcruz/projetos/ecommerce/node_modules/sequelize/src/dialects/abstract/connection-manager.js:280:7)\n    at /home/apcruz/projetos/ecommerce/node_modules/sequelize/src/sequelize.js:638:26\n    at MySQLQueryInterface.insert (/home/apcruz/projetos/ecommerce/node_modules/sequelize/src/dialects/abstract/query-interface.js:795:21)\n    at Usuarios.save (/home/apcruz/projetos/ecommerce/node_modules/sequelize/src/model.js:4153:35)\n    at Function.create (/home/apcruz/projetos/ecommerce/node_modules/sequelize/src/model.js:2305:12)\n    at Repository.criarRegistro (/home/apcruz/projetos/ecommerce/repositories/index.js:88:20)\n    at Function.cadastrarUsuario (/home/apcruz/projetos/ecommerce/services/UsuariosService.js:72:29)\n    at cadastrarUsuario (/home/apcruz/projetos/ecommerce/controllers/UsuariosController.js:7:30)"}
{"level":"error","message":"Access denied for user 'root'@'172.18.0.1' (using password: NO)","name":"SequelizeAccessDeniedError","original":{"code":"ER_ACCESS_DENIED_ERROR","errno":1045,"sqlMessage":"Access denied for user 'root'@'172.18.0.1' (using password: NO)","sqlState":"28000"},"parent":{"code":"ER_ACCESS_DENIED_ERROR","errno":1045,"sqlMessage":"Access denied for user 'root'@'172.18.0.1' (using password: NO)","sqlState":"28000"},"stack":"SequelizeAccessDeniedError: Access denied for user 'root'@'172.18.0.1' (using password: NO)\n    at ConnectionManager.connect (/home/apcruz/projetos/ecommerce/node_modules/sequelize/src/dialects/mysql/connection-manager.js:118:17)\n    at processTicksAndRejections (node:internal/process/task_queues:95:5)\n    at ConnectionManager._connect (/home/apcruz/projetos/ecommerce/node_modules/sequelize/src/dialects/abstract/connection-manager.js:332:24)\n    at /home/apcruz/projetos/ecommerce/node_modules/sequelize/src/dialects/abstract/connection-manager.js:250:32\n    at ConnectionManager.getConnection (/home/apcruz/projetos/ecommerce/node_modules/sequelize/src/dialects/abstract/connection-manager.js:280:7)\n    at /home/apcruz/projetos/ecommerce/node_modules/sequelize/src/sequelize.js:638:26\n    at MySQLQueryInterface.insert (/home/apcruz/projetos/ecommerce/node_modules/sequelize/src/dialects/abstract/query-interface.js:795:21)\n    at Usuarios.save (/home/apcruz/projetos/ecommerce/node_modules/sequelize/src/model.js:4153:35)\n    at Function.create (/home/apcruz/projetos/ecommerce/node_modules/sequelize/src/model.js:2305:12)\n    at Repository.criarRegistro (/home/apcruz/projetos/ecommerce/repositories/index.js:88:20)\n    at Function.cadastrarUsuario (/home/apcruz/projetos/ecommerce/services/UsuariosService.js:72:29)\n    at cadastrarUsuario (/home/apcruz/projetos/ecommerce/controllers/UsuariosController.js:7:30)"}
{"level":"error","message":"Access denied for user 'root'@'172.18.0.1' (using password: NO)","name":"SequelizeAccessDeniedError","original":{"code":"ER_ACCESS_DENIED_ERROR","errno":1045,"sqlMessage":"Access denied for user 'root'@'172.18.0.1' (using password: NO)","sqlState":"28000"},"parent":{"code":"ER_ACCESS_DENIED_ERROR","errno":1045,"sqlMessage":"Access denied for user 'root'@'172.18.0.1' (using password: NO)","sqlState":"28000"},"stack":"SequelizeAccessDeniedError: Access denied for user 'root'@'172.18.0.1' (using password: NO)\n    at ConnectionManager.connect (/home/apcruz/projetos/ecommerce/node_modules/sequelize/src/dialects/mysql/connection-manager.js:118:17)\n    at processTicksAndRejections (node:internal/process/task_queues:95:5)\n    at ConnectionManager._connect (/home/apcruz/projetos/ecommerce/node_modules/sequelize/src/dialects/abstract/connection-manager.js:332:24)\n    at /home/apcruz/projetos/ecommerce/node_modules/sequelize/src/dialects/abstract/connection-manager.js:250:32\n    at ConnectionManager.getConnection (/home/apcruz/projetos/ecommerce/node_modules/sequelize/src/dialects/abstract/connection-manager.js:280:7)\n    at /home/apcruz/projetos/ecommerce/node_modules/sequelize/src/sequelize.js:638:26\n    at MySQLQueryInterface.insert (/home/apcruz/projetos/ecommerce/node_modules/sequelize/src/dialects/abstract/query-interface.js:795:21)\n    at Usuarios.save (/home/apcruz/projetos/ecommerce/node_modules/sequelize/src/model.js:4153:35)\n    at Function.create (/home/apcruz/projetos/ecommerce/node_modules/sequelize/src/model.js:2305:12)\n    at Repository.criarRegistro (/home/apcruz/projetos/ecommerce/repositories/index.js:88:20)\n    at Function.cadastrarUsuario (/home/apcruz/projetos/ecommerce/services/UsuariosService.js:72:29)\n    at cadastrarUsuario (/home/apcruz/projetos/ecommerce/controllers/UsuariosController.js:7:30)"}
{"level":"error","message":"Access denied for user 'root'@'172.18.0.1' (using password: NO)","name":"SequelizeAccessDeniedError","original":{"code":"ER_ACCESS_DENIED_ERROR","errno":1045,"sqlMessage":"Access denied for user 'root'@'172.18.0.1' (using password: NO)","sqlState":"28000"},"parent":{"code":"ER_ACCESS_DENIED_ERROR","errno":1045,"sqlMessage":"Access denied for user 'root'@'172.18.0.1' (using password: NO)","sqlState":"28000"},"stack":"SequelizeAccessDeniedError: Access denied for user 'root'@'172.18.0.1' (using password: NO)\n    at ConnectionManager.connect (/home/apcruz/projetos/ecommerce/node_modules/sequelize/src/dialects/mysql/connection-manager.js:118:17)\n    at processTicksAndRejections (node:internal/process/task_queues:95:5)\n    at ConnectionManager._connect (/home/apcruz/projetos/ecommerce/node_modules/sequelize/src/dialects/abstract/connection-manager.js:332:24)\n    at /home/apcruz/projetos/ecommerce/node_modules/sequelize/src/dialects/abstract/connection-manager.js:250:32\n    at ConnectionManager.getConnection (/home/apcruz/projetos/ecommerce/node_modules/sequelize/src/dialects/abstract/connection-manager.js:280:7)\n    at /home/apcruz/projetos/ecommerce/node_modules/sequelize/src/sequelize.js:638:26\n    at MySQLQueryInterface.insert (/home/apcruz/projetos/ecommerce/node_modules/sequelize/src/dialects/abstract/query-interface.js:795:21)\n    at Usuarios.save (/home/apcruz/projetos/ecommerce/node_modules/sequelize/src/model.js:4153:35)\n    at Function.create (/home/apcruz/projetos/ecommerce/node_modules/sequelize/src/model.js:2305:12)\n    at Repository.criarRegistro (/home/apcruz/projetos/ecommerce/repositories/index.js:88:20)\n    at Function.cadastrarUsuario (/home/apcruz/projetos/ecommerce/services/UsuariosService.js:77:29)\n    at cadastrarUsuario (/home/apcruz/projetos/ecommerce/controllers/UsuariosController.js:7:30)"}
{"level":"error","message":"Access denied for user 'root'@'172.18.0.1' (using password: NO)","name":"SequelizeAccessDeniedError","original":{"code":"ER_ACCESS_DENIED_ERROR","errno":1045,"sqlMessage":"Access denied for user 'root'@'172.18.0.1' (using password: NO)","sqlState":"28000"},"parent":{"code":"ER_ACCESS_DENIED_ERROR","errno":1045,"sqlMessage":"Access denied for user 'root'@'172.18.0.1' (using password: NO)","sqlState":"28000"},"stack":"SequelizeAccessDeniedError: Access denied for user 'root'@'172.18.0.1' (using password: NO)\n    at ConnectionManager.connect (/home/apcruz/projetos/ecommerce/node_modules/sequelize/src/dialects/mysql/connection-manager.js:118:17)\n    at processTicksAndRejections (node:internal/process/task_queues:95:5)\n    at ConnectionManager._connect (/home/apcruz/projetos/ecommerce/node_modules/sequelize/src/dialects/abstract/connection-manager.js:332:24)\n    at /home/apcruz/projetos/ecommerce/node_modules/sequelize/src/dialects/abstract/connection-manager.js:250:32\n    at ConnectionManager.getConnection (/home/apcruz/projetos/ecommerce/node_modules/sequelize/src/dialects/abstract/connection-manager.js:280:7)\n    at /home/apcruz/projetos/ecommerce/node_modules/sequelize/src/sequelize.js:638:26\n    at MySQLQueryInterface.insert (/home/apcruz/projetos/ecommerce/node_modules/sequelize/src/dialects/abstract/query-interface.js:795:21)\n    at Usuarios.save (/home/apcruz/projetos/ecommerce/node_modules/sequelize/src/model.js:4153:35)\n    at Function.create (/home/apcruz/projetos/ecommerce/node_modules/sequelize/src/model.js:2305:12)\n    at Repository.criarRegistro (/home/apcruz/projetos/ecommerce/repositories/index.js:88:20)\n    at Function.cadastrarUsuario (/home/apcruz/projetos/ecommerce/services/UsuariosService.js:77:29)\n    at cadastrarUsuario (/home/apcruz/projetos/ecommerce/controllers/UsuariosController.js:7:30)"}
{"level":"error","message":"Access denied for user 'root'@'172.18.0.1' (using password: NO)","name":"SequelizeAccessDeniedError","original":{"code":"ER_ACCESS_DENIED_ERROR","errno":1045,"sqlMessage":"Access denied for user 'root'@'172.18.0.1' (using password: NO)","sqlState":"28000"},"parent":{"code":"ER_ACCESS_DENIED_ERROR","errno":1045,"sqlMessage":"Access denied for user 'root'@'172.18.0.1' (using password: NO)","sqlState":"28000"},"stack":"SequelizeAccessDeniedError: Access denied for user 'root'@'172.18.0.1' (using password: NO)\n    at ConnectionManager.connect (/home/apcruz/projetos/ecommerce/node_modules/sequelize/src/dialects/mysql/connection-manager.js:118:17)\n    at processTicksAndRejections (node:internal/process/task_queues:95:5)\n    at ConnectionManager._connect (/home/apcruz/projetos/ecommerce/node_modules/sequelize/src/dialects/abstract/connection-manager.js:332:24)\n    at /home/apcruz/projetos/ecommerce/node_modules/sequelize/src/dialects/abstract/connection-manager.js:250:32\n    at ConnectionManager.getConnection (/home/apcruz/projetos/ecommerce/node_modules/sequelize/src/dialects/abstract/connection-manager.js:280:7)\n    at /home/apcruz/projetos/ecommerce/node_modules/sequelize/src/sequelize.js:638:26\n    at MySQLQueryInterface.insert (/home/apcruz/projetos/ecommerce/node_modules/sequelize/src/dialects/abstract/query-interface.js:795:21)\n    at Usuarios.save (/home/apcruz/projetos/ecommerce/node_modules/sequelize/src/model.js:4153:35)\n    at Function.create (/home/apcruz/projetos/ecommerce/node_modules/sequelize/src/model.js:2305:12)\n    at Repository.criarRegistro (/home/apcruz/projetos/ecommerce/repositories/index.js:88:20)\n    at Function.cadastrarUsuario (/home/apcruz/projetos/ecommerce/services/UsuariosService.js:77:29)\n    at cadastrarUsuario (/home/apcruz/projetos/ecommerce/controllers/UsuariosController.js:7:30)"}
{"level":"error","message":"Access denied for user 'root'@'172.18.0.1' (using password: NO)","name":"SequelizeAccessDeniedError","original":{"code":"ER_ACCESS_DENIED_ERROR","errno":1045,"sqlMessage":"Access denied for user 'root'@'172.18.0.1' (using password: NO)","sqlState":"28000"},"parent":{"code":"ER_ACCESS_DENIED_ERROR","errno":1045,"sqlMessage":"Access denied for user 'root'@'172.18.0.1' (using password: NO)","sqlState":"28000"},"stack":"SequelizeAccessDeniedError: Access denied for user 'root'@'172.18.0.1' (using password: NO)\n    at ConnectionManager.connect (/home/apcruz/projetos/ecommerce/node_modules/sequelize/src/dialects/mysql/connection-manager.js:118:17)\n    at processTicksAndRejections (node:internal/process/task_queues:95:5)\n    at ConnectionManager._connect (/home/apcruz/projetos/ecommerce/node_modules/sequelize/src/dialects/abstract/connection-manager.js:332:24)\n    at /home/apcruz/projetos/ecommerce/node_modules/sequelize/src/dialects/abstract/connection-manager.js:250:32\n    at ConnectionManager.getConnection (/home/apcruz/projetos/ecommerce/node_modules/sequelize/src/dialects/abstract/connection-manager.js:280:7)\n    at /home/apcruz/projetos/ecommerce/node_modules/sequelize/src/sequelize.js:638:26\n    at MySQLQueryInterface.insert (/home/apcruz/projetos/ecommerce/node_modules/sequelize/src/dialects/abstract/query-interface.js:795:21)\n    at Usuarios.save (/home/apcruz/projetos/ecommerce/node_modules/sequelize/src/model.js:4153:35)\n    at Function.create (/home/apcruz/projetos/ecommerce/node_modules/sequelize/src/model.js:2305:12)\n    at Repository.criarRegistro (/home/apcruz/projetos/ecommerce/repositories/index.js:88:20)\n    at Function.cadastrarUsuario (/home/apcruz/projetos/ecommerce/services/UsuariosService.js:82:29)\n    at cadastrarUsuario (/home/apcruz/projetos/ecommerce/controllers/UsuariosController.js:7:30)"}
{"level":"error","message":"Access denied for user 'root'@'172.18.0.1' (using password: NO)","name":"SequelizeAccessDeniedError","original":{"code":"ER_ACCESS_DENIED_ERROR","errno":1045,"sqlMessage":"Access denied for user 'root'@'172.18.0.1' (using password: NO)","sqlState":"28000"},"parent":{"code":"ER_ACCESS_DENIED_ERROR","errno":1045,"sqlMessage":"Access denied for user 'root'@'172.18.0.1' (using password: NO)","sqlState":"28000"},"stack":"SequelizeAccessDeniedError: Access denied for user 'root'@'172.18.0.1' (using password: NO)\n    at ConnectionManager.connect (/home/apcruz/projetos/ecommerce/node_modules/sequelize/src/dialects/mysql/connection-manager.js:118:17)\n    at processTicksAndRejections (node:internal/process/task_queues:95:5)\n    at ConnectionManager._connect (/home/apcruz/projetos/ecommerce/node_modules/sequelize/src/dialects/abstract/connection-manager.js:332:24)\n    at /home/apcruz/projetos/ecommerce/node_modules/sequelize/src/dialects/abstract/connection-manager.js:250:32\n    at ConnectionManager.getConnection (/home/apcruz/projetos/ecommerce/node_modules/sequelize/src/dialects/abstract/connection-manager.js:280:7)\n    at /home/apcruz/projetos/ecommerce/node_modules/sequelize/src/sequelize.js:638:26\n    at MySQLQueryInterface.insert (/home/apcruz/projetos/ecommerce/node_modules/sequelize/src/dialects/abstract/query-interface.js:795:21)\n    at Usuarios.save (/home/apcruz/projetos/ecommerce/node_modules/sequelize/src/model.js:4153:35)\n    at Function.create (/home/apcruz/projetos/ecommerce/node_modules/sequelize/src/model.js:2305:12)\n    at Repository.criarRegistro (/home/apcruz/projetos/ecommerce/repositories/index.js:88:20)\n    at Function.cadastrarUsuario (/home/apcruz/projetos/ecommerce/services/UsuariosService.js:82:29)\n    at cadastrarUsuario (/home/apcruz/projetos/ecommerce/controllers/UsuariosController.js:7:30)"}
{"level":"error","message":"Access denied for user 'root'@'172.18.0.1' (using password: NO)","name":"SequelizeAccessDeniedError","original":{"code":"ER_ACCESS_DENIED_ERROR","errno":1045,"sqlMessage":"Access denied for user 'root'@'172.18.0.1' (using password: NO)","sqlState":"28000"},"parent":{"code":"ER_ACCESS_DENIED_ERROR","errno":1045,"sqlMessage":"Access denied for user 'root'@'172.18.0.1' (using password: NO)","sqlState":"28000"},"stack":"SequelizeAccessDeniedError: Access denied for user 'root'@'172.18.0.1' (using password: NO)\n    at ConnectionManager.connect (/home/apcruz/projetos/ecommerce/node_modules/sequelize/src/dialects/mysql/connection-manager.js:118:17)\n    at processTicksAndRejections (node:internal/process/task_queues:95:5)\n    at ConnectionManager._connect (/home/apcruz/projetos/ecommerce/node_modules/sequelize/src/dialects/abstract/connection-manager.js:332:24)\n    at /home/apcruz/projetos/ecommerce/node_modules/sequelize/src/dialects/abstract/connection-manager.js:250:32\n    at ConnectionManager.getConnection (/home/apcruz/projetos/ecommerce/node_modules/sequelize/src/dialects/abstract/connection-manager.js:280:7)\n    at /home/apcruz/projetos/ecommerce/node_modules/sequelize/src/sequelize.js:638:26\n    at MySQLQueryInterface.insert (/home/apcruz/projetos/ecommerce/node_modules/sequelize/src/dialects/abstract/query-interface.js:795:21)\n    at Usuarios.save (/home/apcruz/projetos/ecommerce/node_modules/sequelize/src/model.js:4153:35)\n    at Function.create (/home/apcruz/projetos/ecommerce/node_modules/sequelize/src/model.js:2305:12)\n    at Repository.criarRegistro (/home/apcruz/projetos/ecommerce/repositories/index.js:88:20)\n    at Function.cadastrarUsuario (/home/apcruz/projetos/ecommerce/services/UsuariosService.js:82:29)\n    at cadastrarUsuario (/home/apcruz/projetos/ecommerce/controllers/UsuariosController.js:7:30)"}
{"level":"error","message":"Access denied for user 'root'@'172.18.0.1' (using password: NO)","name":"SequelizeAccessDeniedError","original":{"code":"ER_ACCESS_DENIED_ERROR","errno":1045,"sqlMessage":"Access denied for user 'root'@'172.18.0.1' (using password: NO)","sqlState":"28000"},"parent":{"code":"ER_ACCESS_DENIED_ERROR","errno":1045,"sqlMessage":"Access denied for user 'root'@'172.18.0.1' (using password: NO)","sqlState":"28000"},"stack":"SequelizeAccessDeniedError: Access denied for user 'root'@'172.18.0.1' (using password: NO)\n    at ConnectionManager.connect (/home/apcruz/projetos/ecommerce/node_modules/sequelize/src/dialects/mysql/connection-manager.js:118:17)\n    at processTicksAndRejections (node:internal/process/task_queues:95:5)\n    at ConnectionManager._connect (/home/apcruz/projetos/ecommerce/node_modules/sequelize/src/dialects/abstract/connection-manager.js:332:24)\n    at /home/apcruz/projetos/ecommerce/node_modules/sequelize/src/dialects/abstract/connection-manager.js:250:32\n    at ConnectionManager.getConnection (/home/apcruz/projetos/ecommerce/node_modules/sequelize/src/dialects/abstract/connection-manager.js:280:7)\n    at /home/apcruz/projetos/ecommerce/node_modules/sequelize/src/sequelize.js:638:26\n    at MySQLQueryInterface.insert (/home/apcruz/projetos/ecommerce/node_modules/sequelize/src/dialects/abstract/query-interface.js:795:21)\n    at Usuarios.save (/home/apcruz/projetos/ecommerce/node_modules/sequelize/src/model.js:4153:35)\n    at Function.create (/home/apcruz/projetos/ecommerce/node_modules/sequelize/src/model.js:2305:12)\n    at Repository.criarRegistro (/home/apcruz/projetos/ecommerce/repositories/index.js:88:20)\n    at Function.cadastrarUsuario (/home/apcruz/projetos/ecommerce/services/UsuariosService.js:82:29)\n    at cadastrarUsuario (/home/apcruz/projetos/ecommerce/controllers/UsuariosController.js:7:30)"}
{"level":"error","message":"Access denied for user 'root'@'172.18.0.1' (using password: NO)","name":"SequelizeAccessDeniedError","original":{"code":"ER_ACCESS_DENIED_ERROR","errno":1045,"sqlMessage":"Access denied for user 'root'@'172.18.0.1' (using password: NO)","sqlState":"28000"},"parent":{"code":"ER_ACCESS_DENIED_ERROR","errno":1045,"sqlMessage":"Access denied for user 'root'@'172.18.0.1' (using password: NO)","sqlState":"28000"},"stack":"SequelizeAccessDeniedError: Access denied for user 'root'@'172.18.0.1' (using password: NO)\n    at ConnectionManager.connect (/home/apcruz/projetos/ecommerce/node_modules/sequelize/src/dialects/mysql/connection-manager.js:118:17)\n    at processTicksAndRejections (node:internal/process/task_queues:95:5)\n    at ConnectionManager._connect (/home/apcruz/projetos/ecommerce/node_modules/sequelize/src/dialects/abstract/connection-manager.js:332:24)\n    at /home/apcruz/projetos/ecommerce/node_modules/sequelize/src/dialects/abstract/connection-manager.js:250:32\n    at ConnectionManager.getConnection (/home/apcruz/projetos/ecommerce/node_modules/sequelize/src/dialects/abstract/connection-manager.js:280:7)\n    at /home/apcruz/projetos/ecommerce/node_modules/sequelize/src/sequelize.js:638:26\n    at MySQLQueryInterface.insert (/home/apcruz/projetos/ecommerce/node_modules/sequelize/src/dialects/abstract/query-interface.js:795:21)\n    at Usuarios.save (/home/apcruz/projetos/ecommerce/node_modules/sequelize/src/model.js:4153:35)\n    at Function.create (/home/apcruz/projetos/ecommerce/node_modules/sequelize/src/model.js:2305:12)\n    at Repository.criarRegistro (/home/apcruz/projetos/ecommerce/repositories/index.js:88:20)\n    at Function.cadastrarUsuario (/home/apcruz/projetos/ecommerce/services/UsuariosService.js:82:29)\n    at cadastrarUsuario (/home/apcruz/projetos/ecommerce/controllers/UsuariosController.js:7:30)"}
{"level":"error","message":"ConnectionManager.getConnection was called after the connection manager was closed!","stack":"Error: ConnectionManager.getConnection was called after the connection manager was closed!\n    at ConnectionManager.getConnection (/home/apcruz/projetos/ecommerce/node_modules/sequelize/src/dialects/abstract/connection-manager.js:113:13)\n    at /home/apcruz/projetos/ecommerce/node_modules/sequelize/src/sequelize.js:638:111\n    at /home/apcruz/projetos/ecommerce/node_modules/retry-as-promised/dist/index.js:59:25\n    at new Promise (<anonymous>)\n    at retryAsPromised (/home/apcruz/projetos/ecommerce/node_modules/retry-as-promised/dist/index.js:48:12)\n    at Sequelize.query (/home/apcruz/projetos/ecommerce/node_modules/sequelize/src/sequelize.js:631:12)\n    at MySQLQueryInterface.insert (/home/apcruz/projetos/ecommerce/node_modules/sequelize/src/dialects/abstract/query-interface.js:795:42)\n    at Usuarios.save (/home/apcruz/projetos/ecommerce/node_modules/sequelize/src/model.js:4153:73)\n    at processTicksAndRejections (node:internal/process/task_queues:95:5)\n    at Function.create (/home/apcruz/projetos/ecommerce/node_modules/sequelize/src/model.js:2305:12)\n    at Repository.criarRegistro (/home/apcruz/projetos/ecommerce/repositories/index.js:88:20)\n    at Function.cadastrarUsuario (/home/apcruz/projetos/ecommerce/services/UsuariosService.js:82:29)\n    at cadastrarUsuario (/home/apcruz/projetos/ecommerce/controllers/UsuariosController.js:7:30)"}
{"level":"error","message":"ConnectionManager.getConnection was called after the connection manager was closed!","stack":"Error: ConnectionManager.getConnection was called after the connection manager was closed!\n    at ConnectionManager.getConnection (/home/apcruz/projetos/ecommerce/node_modules/sequelize/src/dialects/abstract/connection-manager.js:113:13)\n    at /home/apcruz/projetos/ecommerce/node_modules/sequelize/src/sequelize.js:638:111\n    at /home/apcruz/projetos/ecommerce/node_modules/retry-as-promised/dist/index.js:59:25\n    at new Promise (<anonymous>)\n    at retryAsPromised (/home/apcruz/projetos/ecommerce/node_modules/retry-as-promised/dist/index.js:48:12)\n    at Sequelize.query (/home/apcruz/projetos/ecommerce/node_modules/sequelize/src/sequelize.js:631:12)\n    at MySQLQueryInterface.insert (/home/apcruz/projetos/ecommerce/node_modules/sequelize/src/dialects/abstract/query-interface.js:795:42)\n    at Usuarios.save (/home/apcruz/projetos/ecommerce/node_modules/sequelize/src/model.js:4153:73)\n    at processTicksAndRejections (node:internal/process/task_queues:95:5)\n    at Function.create (/home/apcruz/projetos/ecommerce/node_modules/sequelize/src/model.js:2305:12)\n    at Repository.criarRegistro (/home/apcruz/projetos/ecommerce/repositories/index.js:88:20)\n    at Function.cadastrarUsuario (/home/apcruz/projetos/ecommerce/services/UsuariosService.js:82:29)\n    at cadastrarUsuario (/home/apcruz/projetos/ecommerce/controllers/UsuariosController.js:7:30)"}
{"level":"error","message":"ConnectionManager.getConnection was called after the connection manager was closed!","stack":"Error: ConnectionManager.getConnection was called after the connection manager was closed!\n    at ConnectionManager.getConnection (/home/apcruz/projetos/ecommerce/node_modules/sequelize/src/dialects/abstract/connection-manager.js:113:13)\n    at /home/apcruz/projetos/ecommerce/node_modules/sequelize/src/sequelize.js:638:111\n    at /home/apcruz/projetos/ecommerce/node_modules/retry-as-promised/dist/index.js:59:25\n    at new Promise (<anonymous>)\n    at retryAsPromised (/home/apcruz/projetos/ecommerce/node_modules/retry-as-promised/dist/index.js:48:12)\n    at Sequelize.query (/home/apcruz/projetos/ecommerce/node_modules/sequelize/src/sequelize.js:631:12)\n    at MySQLQueryInterface.insert (/home/apcruz/projetos/ecommerce/node_modules/sequelize/src/dialects/abstract/query-interface.js:795:42)\n    at Usuarios.save (/home/apcruz/projetos/ecommerce/node_modules/sequelize/src/model.js:4153:73)\n    at processTicksAndRejections (node:internal/process/task_queues:95:5)\n    at Function.create (/home/apcruz/projetos/ecommerce/node_modules/sequelize/src/model.js:2305:12)\n    at Repository.criarRegistro (/home/apcruz/projetos/ecommerce/repositories/index.js:88:20)\n    at Function.cadastrarUsuario (/home/apcruz/projetos/ecommerce/services/UsuariosService.js:82:29)\n    at cadastrarUsuario (/home/apcruz/projetos/ecommerce/controllers/UsuariosController.js:7:30)"}
